EDA2
…
Earliest Cases

time_series_19_covid_combined %>% 
  select(Date, `Country/Region`, `Province/State`, Confirmed, Recovered, Deaths) %>% 
  filter(Date == min(Date) & Confirmed > 0) %>% 
  arrange(`Country/Region`)

## # A tibble: 29 x 6
##    Date       `Country/Region` `Province/State` Confirmed Recovered Deaths
##    <date>     <chr>            <chr>                <dbl>     <dbl>  <dbl>
##  1 2020-01-22 China            Anhui                    1         0      0
##  2 2020-01-22 China            Beijing                 14         0      0
##  3 2020-01-22 China            Chongqing                6         0      0
##  4 2020-01-22 China            Fujian                   1         0      0
##  5 2020-01-22 China            Guangdong               26         0      0
##  6 2020-01-22 China            Guangxi                  2         0      0
##  7 2020-01-22 China            Guizhou                  1         0      0
##  8 2020-01-22 China            Hainan                   4         0      0
##  9 2020-01-22 China            Hebei                    1         0      0
## 10 2020-01-22 China            Henan                    5         0      0
## #  with 19 more rows

Latest Cases

time_series_19_covid_combined %>% 
  select(Date, `Country/Region`, `Province/State`, Confirmed, Recovered, Deaths) %>% 
  filter(Date == max(Date) & Confirmed > 0) %>% 
  arrange(`Country/Region`)

## # A tibble: 265 x 6
##    Date       `Country/Region`   `Province/State`     Confirmed Recovered Deaths
##    <date>     <chr>              <chr>                    <dbl>     <dbl>  <dbl>
##  1 2020-05-04 Afghanistan        <NA>                      2894       397     90
##  2 2020-05-04 Albania            <NA>                       803       543     31
##  3 2020-05-04 Algeria            <NA>                      4648      1998    465
##  4 2020-05-04 Andorra            <NA>                       750       499     45
##  5 2020-05-04 Angola             <NA>                        35        11      2
##  6 2020-05-04 Antigua and Barbu <NA>                        25        15      3
##  7 2020-05-04 Argentina          <NA>                      4887      1442    260
##  8 2020-05-04 Armenia            <NA>                      2507      1071     39
##  9 2020-05-04 Australia          Australian Capital        107       103      3
## 10 2020-05-04 Australia          New South Wales           3035      2349     43
## #  with 255 more rows
…
##          [,20]     [,21]         [,22]     [,23]      [,24]      [,25]
## [1,] 0.3370047 0.2029651 -3.587035e-08 0.1725514 0.07758162 -0.1730885
## 
## $params$sigma_obs
## [1] 0.001100893
## 
## $params$beta
##             [,1]          [,2]        [,3]          [,4]         [,5]
## [1,] 0.001094412 -0.0003390087 3.27955e-05 -7.577542e-05 0.0001255982
##              [,6]
## [1,] 3.353193e-05
## 
## 
## $history
## # A tibble: 104 x 8
##    ds                      y Recovered Deaths `Increase rate` floor       t
##    <dttm>              <dbl>     <dbl>  <dbl>           <dbl> <dbl>   <dbl>
##  1 2020-01-22 00:00:00   555        28     17            NA       0 0      
##  2 2020-01-23 00:00:00   654        30     18            17.8     0 0.00971
##  3 2020-01-24 00:00:00   941        36     26            43.9     0 0.0194 
##  4 2020-01-25 00:00:00  1434        39     42            52.4     0 0.0291 
##  5 2020-01-26 00:00:00  2118        52     56            47.7     0 0.0388 
##  6 2020-01-27 00:00:00  2927        61     82            38.2     0 0.0485 
##  7 2020-01-28 00:00:00  5578       107    131            90.6     0 0.0583 
##  8 2020-01-29 00:00:00  6166       126    133            10.5     0 0.0680 
##  9 2020-01-30 00:00:00  8234       143    171            33.5     0 0.0777 
## 10 2020-01-31 00:00:00  9927       222    213            20.6     0 0.0874 
## #  with 94 more rows, and 1 more variable: y_scaled <dbl>
## 
## $history.dates
##   [1] "2020-01-22 GMT" "2020-01-23 GMT" "2020-01-24 GMT" "2020-01-25 GMT"
##   [5] "2020-01-26 GMT" "2020-01-27 GMT" "2020-01-28 GMT" "2020-01-29 GMT"
##   [9] "2020-01-30 GMT" "2020-01-31 GMT" "2020-02-01 GMT" "2020-02-02 GMT"
##  [13] "2020-02-03 GMT" "2020-02-04 GMT" "2020-02-05 GMT" "2020-02-06 GMT"
##  [17] "2020-02-07 GMT" "2020-02-08 GMT" "2020-02-09 GMT" "2020-02-10 GMT"
##  [21] "2020-02-11 GMT" "2020-02-12 GMT" "2020-02-13 GMT" "2020-02-14 GMT"
…
